…
### Downloading Extinction Data: Putting it all together

In order to understand what queries to make to the IUCN REST API, we need a list of extinct species names. This information can be downloaded from the IUCN website. To simplify, we download the data file using a copy that was already prepared and name it "extinct".

``` r
extinct <- suppressMessages(read_csv("https://espm-157.github.io/extinction-module/extinct.csv"))

species <- extinct$Species
genus <- extinct$Genus
output <- map2_dfr( genus, species, api_fn)

output
```

    # A tibble: 841 x 4
       Genus      Species   rationale                              status_code
       <chr>      <chr>     <chr>                                        <int>
     1 Acaena     exigua    The last known individual of <em>A. e…         200
     2 Acalypha   dikuluwe… "<span style=\"font-style: italic;\">…         200
     3 Acalypha   rubriner… <NA>                                           200
     4 Acalypha   wilderi   "<span style=\"font-style: italic;\">…         200
     5 Acanthame… pecatoni… <NA>                                           200
     6 Achatinel… abbrevia… <NA>                                           200
     7 Achatinel… buddii    <NA>                                           200
     8 Achatinel… caesia    <NA>                                           200
     9 Achatinel… casta     <NA>                                           200
    10 Achatinel… decora    <NA>                                           200
    # ... with 831 more rows
…
Next we created a function that extracts the date from the rationale. We also create another column with these dates. For the purpose of our report we extracted all dates within the rationale, to make your analysis more accurate you must extract the oldest year from the rationale.

``` r
datejoin <- output %>%
  mutate(year = as.numeric(str_extract(rationale, "\\d{4}")))

datejoin
```

    # A tibble: 841 x 5
       Genus     Species   rationale                         status_code  year
       <chr>     <chr>     <chr>                                   <int> <dbl>
     1 Acaena    exigua    The last known individual of <em…         200  1990
     2 Acalypha  dikuluwe… "<span style=\"font-style: itali…         200  1959
     3 Acalypha  rubriner… <NA>                                      200    NA
     4 Acalypha  wilderi   "<span style=\"font-style: itali…         200  1929
     5 Acantham… pecatoni… <NA>                                      200    NA
     6 Achatine… abbrevia… <NA>                                      200    NA
     7 Achatine… buddii    <NA>                                      200    NA
     8 Achatine… caesia    <NA>                                      200    NA
     9 Achatine… casta     <NA>                                      200    NA
    10 Achatine… decora    <NA>                                      200    NA
    # ... with 831 more rows
…
